[gd_scene load_steps=4 format=2]

[ext_resource path="res://Game/UI/UIAssets/emote_idea.png" type="Texture" id=1]
[ext_resource path="res://Game/Idea.gd" type="Script" id=2]

[sub_resource type="CircleShape2D" id=1]
radius = 16.0

[node name="Idea" type="Node2D"]

[node name="Area2D" type="Area2D" parent="."]
script = ExtResource( 2 )

[node name="Sprite" type="Sprite" parent="Area2D"]
position = Vector2( 0, 1 )
scale = Vector2( 1.0625, 1.09211 )
texture = ExtResource( 1 )

[node name="CollisionShape2D" type="CollisionShape2D" parent="Area2D"]
shape = SubResource( 1 )
[connection signal="body_entered" from="Area2D" to="Area2D" method="_on_Area2D_body_entered"]
