[gd_scene load_steps=2 format=2]

[ext_resource path="res://Game/NewGame.tscn" type="PackedScene" id=1]

[node name="Options" instance=ExtResource( 1 )]

[node name="VBoxContainer" parent="CenterContainer" index="0"]
margin_left = 152.0
margin_top = 238.0
margin_right = 872.0
margin_bottom = 362.0

[node name="Label" parent="CenterContainer/VBoxContainer" index="0"]
margin_right = 720.0
margin_bottom = 84.0
text = "Escena Opciones"

[node name="Button" parent="CenterContainer/VBoxContainer" index="1"]
margin_top = 88.0
margin_right = 720.0
margin_bottom = 124.0
