[gd_resource type="TileSet" load_steps=91 format=2]

[ext_resource path="res://Assets/kenney_hexagonkit_1/Isometric/building_wall_E.png" type="Texture" id=1]
[ext_resource path="res://Assets/kenney_hexagonkit_1/Isometric/building_cabin_N.png" type="Texture" id=2]
[ext_resource path="res://Assets/kenney_hexagonkit_1/Side/sand_rocks.png" type="Texture" id=3]
[ext_resource path="res://Assets/kenney_hexagonkit_1/Isometric/building_house_E.png" type="Texture" id=4]
[ext_resource path="res://Assets/kenney_hexagonkit_1/Isometric/building_mill_E.png" type="Texture" id=5]
[ext_resource path="res://Assets/kenney_hexagonkit_1/Isometric/building_farm_NE.png" type="Texture" id=6]
[ext_resource path="res://Assets/kenney_hexagonkit_1/Isometric/building_sheep_N.png" type="Texture" id=7]
[ext_resource path="res://Assets/kenney_hexagonkit_1/Side/stone.png" type="Texture" id=8]
[ext_resource path="res://Assets/kenney_hexagonkit_1/Isometric/building_smelter_E.png" type="Texture" id=9]
[ext_resource path="res://Assets/kenney_hexagonkit_1/Side/water.png" type="Texture" id=10]
[ext_resource path="res://Assets/kenney_hexagonkit_1/Isometric/building_cabin_E.png" type="Texture" id=11]
[ext_resource path="res://Assets/kenney_hexagonkit_1/Isometric/dirt_E.png" type="Texture" id=12]
[ext_resource path="res://Assets/kenney_hexagonkit_1/Isometric/path_corner_SW.png" type="Texture" id=13]
[ext_resource path="res://Assets/kenney_hexagonkit_1/Isometric/path_straight_NE.png" type="Texture" id=14]
[ext_resource path="res://Assets/kenney_hexagonkit_1/Isometric/path_straight_E.png" type="Texture" id=15]
[ext_resource path="res://Assets/kenney_hexagonkit_1/Isometric/path_intersectionA_E.png" type="Texture" id=16]
[ext_resource path="res://Assets/kenney_hexagonkit_1/Isometric/path_cornerSharp_N.png" type="Texture" id=17]
[ext_resource path="res://Assets/kenney_hexagonkit_1/Isometric/path_corner_E.png" type="Texture" id=18]
[ext_resource path="res://Assets/kenney_hexagonkit_1/Isometric/path_corner_S.png" type="Texture" id=19]
[ext_resource path="res://Assets/kenney_hexagonkit_1/Isometric/path_crossing_N.png" type="Texture" id=20]
[ext_resource path="res://Assets/kenney_hexagonkit_1/Isometric/path_straight_N.png" type="Texture" id=21]
[ext_resource path="res://Assets/kenney_hexagonkit_1/Isometric/path_cornerSharp_W.png" type="Texture" id=22]
[ext_resource path="res://Assets/kenney_hexagonkit_1/Isometric/path_end_S.png" type="Texture" id=23]
[ext_resource path="res://Assets/kenney_hexagonkit_1/Isometric/path_end_W.png" type="Texture" id=24]
[ext_resource path="res://Assets/kenney_hexagonkit_1/Isometric/path_cornerSharp_SW.png" type="Texture" id=25]
[ext_resource path="res://Assets/kenney_hexagonkit_1/Isometric/path_corner_NW.png" type="Texture" id=26]
[ext_resource path="res://Assets/kenney_hexagonkit_1/Isometric/path_crossing_E.png" type="Texture" id=27]
[ext_resource path="res://Assets/kenney_hexagonkit_1/Isometric/path_end_SW.png" type="Texture" id=28]
[ext_resource path="res://Assets/kenney_hexagonkit_1/Isometric/dirt_lumber_N.png" type="Texture" id=29]
[ext_resource path="res://Assets/kenney_hexagonkit_1/Isometric/path_corner_W.png" type="Texture" id=30]
[ext_resource path="res://Assets/kenney_hexagonkit_1/Isometric/path_straight_S.png" type="Texture" id=31]
[ext_resource path="res://Assets/kenney_hexagonkit_1/Isometric/dirt_lumber_E.png" type="Texture" id=32]
[ext_resource path="res://Assets/kenney_hexagonkit_1/Isometric/path_cornerSharp_S.png" type="Texture" id=33]
[ext_resource path="res://Assets/kenney_hexagonkit_1/Isometric/path_corner_NE.png" type="Texture" id=34]
[ext_resource path="res://Assets/kenney_hexagonkit_1/Isometric/path_cornerSharp_NE.png" type="Texture" id=35]
[ext_resource path="res://Assets/kenney_hexagonkit_1/Isometric/path_corner_N.png" type="Texture" id=36]
[ext_resource path="res://Assets/kenney_hexagonkit_1/Isometric/dirt_lumber_S.png" type="Texture" id=37]
[ext_resource path="res://Assets/kenney_hexagonkit_1/Isometric/path_cornerSharp_NW.png" type="Texture" id=38]
[ext_resource path="res://Assets/kenney_hexagonkit_1/Isometric/path_cornerSharp_SE.png" type="Texture" id=39]
[ext_resource path="res://Assets/kenney_hexagonkit_1/Isometric/path_end_NW.png" type="Texture" id=40]
[ext_resource path="res://Assets/kenney_hexagonkit_1/Isometric/path_straight_SE.png" type="Texture" id=41]
[ext_resource path="res://Assets/kenney_hexagonkit_1/Isometric/path_straight_NW.png" type="Texture" id=42]
[ext_resource path="res://Assets/kenney_hexagonkit_1/Isometric/path_corner_SE.png" type="Texture" id=43]
[ext_resource path="res://Assets/kenney_hexagonkit_1/Isometric/path_end_SE.png" type="Texture" id=44]
[ext_resource path="res://Assets/kenney_hexagonkit_1/Isometric/sand_NW.png" type="Texture" id=45]
[ext_resource path="res://Assets/kenney_hexagonkit_1/Isometric/path_start_W.png" type="Texture" id=46]
[ext_resource path="res://Assets/kenney_hexagonkit_1/Isometric/path_start_SW.png" type="Texture" id=47]
[ext_resource path="res://Assets/kenney_hexagonkit_1/Isometric/sand_SE.png" type="Texture" id=48]
[ext_resource path="res://Assets/kenney_hexagonkit_1/Isometric/stone_rocks_NE.png" type="Texture" id=49]
[ext_resource path="res://Assets/kenney_hexagonkit_1/Isometric/stone_rocks_SW.png" type="Texture" id=50]
[ext_resource path="res://Assets/kenney_hexagonkit_1/Isometric/stone_SE.png" type="Texture" id=51]
[ext_resource path="res://Assets/kenney_hexagonkit_1/Isometric/stone_rocks_S.png" type="Texture" id=52]
[ext_resource path="res://Assets/kenney_hexagonkit_1/Isometric/sand_rocks_SE.png" type="Texture" id=53]
[ext_resource path="res://Assets/kenney_hexagonkit_1/Isometric/sand_rocks_N.png" type="Texture" id=54]
[ext_resource path="res://Assets/kenney_hexagonkit_1/Isometric/stone_S.png" type="Texture" id=55]
[ext_resource path="res://Assets/kenney_hexagonkit_1/Isometric/sand_E.png" type="Texture" id=56]
[ext_resource path="res://Assets/kenney_hexagonkit_1/Isometric/sand_S.png" type="Texture" id=57]
[ext_resource path="res://Assets/kenney_hexagonkit_1/Isometric/sand_SW.png" type="Texture" id=58]
[ext_resource path="res://Assets/kenney_hexagonkit_1/Isometric/sand_rocks_E.png" type="Texture" id=59]
[ext_resource path="res://Assets/kenney_hexagonkit_1/Isometric/sand_rocks_S.png" type="Texture" id=60]
[ext_resource path="res://Assets/kenney_hexagonkit_1/Isometric/sand_N.png" type="Texture" id=61]
[ext_resource path="res://Assets/kenney_hexagonkit_1/Isometric/sand_rocks_SW.png" type="Texture" id=62]
[ext_resource path="res://Assets/kenney_hexagonkit_1/Isometric/sand_rocks_NW.png" type="Texture" id=63]
[ext_resource path="res://Assets/kenney_hexagonkit_1/Isometric/stone_hill_E.png" type="Texture" id=64]
[ext_resource path="res://Assets/kenney_hexagonkit_1/Isometric/stone_rocks_SE.png" type="Texture" id=65]
[ext_resource path="res://Assets/kenney_hexagonkit_1/Isometric/sand_W.png" type="Texture" id=66]
[ext_resource path="res://Assets/kenney_hexagonkit_1/Isometric/sand_NE.png" type="Texture" id=67]
[ext_resource path="res://Assets/kenney_hexagonkit_1/Isometric/stone_E.png" type="Texture" id=68]
[ext_resource path="res://Assets/kenney_hexagonkit_1/Isometric/stone_rocks_E.png" type="Texture" id=69]
[ext_resource path="res://Assets/kenney_hexagonkit_1/Isometric/stone_rocks_NW.png" type="Texture" id=70]
[ext_resource path="res://Assets/kenney_hexagonkit_1/Isometric/stone_rocks_N.png" type="Texture" id=71]
[ext_resource path="res://Assets/kenney_hexagonkit_1/Isometric/stone_SW.png" type="Texture" id=72]
[ext_resource path="res://Assets/kenney_hexagonkit_1/Isometric/stone_hill_N.png" type="Texture" id=73]
[ext_resource path="res://Assets/kenney_hexagonkit_1/Isometric/sand_rocks_NE.png" type="Texture" id=74]
[ext_resource path="res://Assets/kenney_hexagonkit_1/Isometric/sand_rocks_W.png" type="Texture" id=75]
[ext_resource path="res://Assets/kenney_hexagonkit_1/Isometric/stone_rocks_W.png" type="Texture" id=76]
[ext_resource path="res://Assets/kenney_hexagonkit_1/Isometric/stone_W.png" type="Texture" id=77]
[ext_resource path="res://Assets/kenney_hexagonkit_1/Isometric/water_S.png" type="Texture" id=78]
[ext_resource path="res://Assets/kenney_hexagonkit_1/Isometric/unit_boat_S.png" type="Texture" id=79]
[ext_resource path="res://Assets/kenney_hexagonkit_1/Isometric/water_SW.png" type="Texture" id=80]
[ext_resource path="res://Assets/kenney_hexagonkit_1/Isometric/unit_mill_N.png" type="Texture" id=81]
[ext_resource path="res://Assets/kenney_hexagonkit_1/Isometric/unit_boat_E.png" type="Texture" id=82]
[ext_resource path="res://Assets/kenney_hexagonkit_1/Isometric/unit_boat_SE.png" type="Texture" id=83]
[ext_resource path="res://Assets/kenney_hexagonkit_1/Isometric/water_island_E.png" type="Texture" id=84]
[ext_resource path="res://Assets/kenney_hexagonkit_1/Isometric/unit_boat_NW.png" type="Texture" id=85]
[ext_resource path="res://Assets/kenney_hexagonkit_1/Isometric/water_SE.png" type="Texture" id=86]
[ext_resource path="res://Assets/kenney_hexagonkit_1/Isometric/unit_boat_N.png" type="Texture" id=87]
[ext_resource path="res://Assets/kenney_hexagonkit_1/Isometric/unit_boat_SW.png" type="Texture" id=88]
[ext_resource path="res://Assets/kenney_hexagonkit_1/Isometric/unit_boat_NE.png" type="Texture" id=89]
[ext_resource path="res://Assets/kenney_hexagonkit_1/Isometric/water_W.png" type="Texture" id=90]

[resource]
0/name = "sand_rocks"
0/texture = ExtResource( 3 )
0/tex_offset = Vector2( 0, 0 )
0/modulate = Color( 1, 1, 1, 1 )
0/region = Rect2( 0, 0, 195, 45 )
0/tile_mode = 0
0/occluder_offset = Vector2( 97.5, 22.5 )
0/navigation_offset = Vector2( 97.5, 22.5 )
0/shape_offset = Vector2( 0, 0 )
0/shape_transform = Transform2D( 1, 0, 0, 1, 0, 0 )
0/shape_one_way = false
0/shape_one_way_margin = 0.0
0/shapes = [  ]
0/z_index = 0
1/name = "stone"
1/texture = ExtResource( 8 )
1/tex_offset = Vector2( 0, 0 )
1/modulate = Color( 1, 1, 1, 1 )
1/region = Rect2( 0, 0, 195, 37 )
1/tile_mode = 0
1/occluder_offset = Vector2( 97.5, 18.5 )
1/navigation_offset = Vector2( 97.5, 18.5 )
1/shape_offset = Vector2( 0, 0 )
1/shape_transform = Transform2D( 1, 0, 0, 1, 0, 0 )
1/shape_one_way = false
1/shape_one_way_margin = 0.0
1/shapes = [  ]
1/z_index = 0
2/name = "water"
2/texture = ExtResource( 10 )
2/tex_offset = Vector2( 0, 0 )
2/modulate = Color( 1, 1, 1, 1 )
2/region = Rect2( 0, 0, 195, 19 )
2/tile_mode = 0
2/occluder_offset = Vector2( 97.5, 9.5 )
2/navigation_offset = Vector2( 97.5, 9.5 )
2/shape_offset = Vector2( 0, 0 )
2/shape_transform = Transform2D( 1, 0, 0, 1, 0, 0 )
2/shape_one_way = false
2/shape_one_way_margin = 0.0
2/shapes = [  ]
2/z_index = 0
3/name = "building_cabin_E"
3/texture = ExtResource( 11 )
3/tex_offset = Vector2( 0, 0 )
3/modulate = Color( 1, 1, 1, 1 )
3/region = Rect2( 0, 0, 512, 512 )
3/tile_mode = 0
3/occluder_offset = Vector2( 256, 256 )
3/navigation_offset = Vector2( 256, 256 )
3/shape_offset = Vector2( 0, 0 )
3/shape_transform = Transform2D( 1, 0, 0, 1, 0, 0 )
3/shape_one_way = false
3/shape_one_way_margin = 0.0
3/shapes = [  ]
3/z_index = 0
4/name = "building_cabin_N"
4/texture = ExtResource( 2 )
4/tex_offset = Vector2( 0, 0 )
4/modulate = Color( 1, 1, 1, 1 )
4/region = Rect2( 0, 0, 512, 512 )
4/tile_mode = 0
4/occluder_offset = Vector2( 256, 256 )
4/navigation_offset = Vector2( 256, 256 )
4/shape_offset = Vector2( 0, 0 )
4/shape_transform = Transform2D( 1, 0, 0, 1, 0, 0 )
4/shape_one_way = false
4/shape_one_way_margin = 0.0
4/shapes = [  ]
4/z_index = 0
5/name = "building_farm_NE"
5/texture = ExtResource( 6 )
5/tex_offset = Vector2( 0, 0 )
5/modulate = Color( 1, 1, 1, 1 )
5/region = Rect2( 0, 0, 512, 512 )
5/tile_mode = 0
5/occluder_offset = Vector2( 256, 256 )
5/navigation_offset = Vector2( 256, 256 )
5/shape_offset = Vector2( 0, 0 )
5/shape_transform = Transform2D( 1, 0, 0, 1, 0, 0 )
5/shape_one_way = false
5/shape_one_way_margin = 0.0
5/shapes = [  ]
5/z_index = 0
6/name = "building_house_E"
6/texture = ExtResource( 4 )
6/tex_offset = Vector2( 0, 0 )
6/modulate = Color( 1, 1, 1, 1 )
6/region = Rect2( 0, 0, 512, 512 )
6/tile_mode = 0
6/occluder_offset = Vector2( 256, 256 )
6/navigation_offset = Vector2( 256, 256 )
6/shape_offset = Vector2( 0, 0 )
6/shape_transform = Transform2D( 1, 0, 0, 1, 0, 0 )
6/shape_one_way = false
6/shape_one_way_margin = 0.0
6/shapes = [  ]
6/z_index = 0
7/name = "building_mill_E"
7/texture = ExtResource( 5 )
7/tex_offset = Vector2( 0, 0 )
7/modulate = Color( 1, 1, 1, 1 )
7/region = Rect2( 0, 0, 512, 512 )
7/tile_mode = 0
7/occluder_offset = Vector2( 256, 256 )
7/navigation_offset = Vector2( 256, 256 )
7/shape_offset = Vector2( 0, 0 )
7/shape_transform = Transform2D( 1, 0, 0, 1, 0, 0 )
7/shape_one_way = false
7/shape_one_way_margin = 0.0
7/shapes = [  ]
7/z_index = 0
8/name = "building_sheep_N"
8/texture = ExtResource( 7 )
8/tex_offset = Vector2( 0, 0 )
8/modulate = Color( 1, 1, 1, 1 )
8/region = Rect2( 0, 0, 512, 512 )
8/tile_mode = 0
8/occluder_offset = Vector2( 256, 256 )
8/navigation_offset = Vector2( 256, 256 )
8/shape_offset = Vector2( 0, 0 )
8/shape_transform = Transform2D( 1, 0, 0, 1, 0, 0 )
8/shape_one_way = false
8/shape_one_way_margin = 0.0
8/shapes = [  ]
8/z_index = 0
9/name = "building_smelter_E"
9/texture = ExtResource( 9 )
9/tex_offset = Vector2( 0, 0 )
9/modulate = Color( 1, 1, 1, 1 )
9/region = Rect2( 0, 0, 512, 512 )
9/tile_mode = 0
9/occluder_offset = Vector2( 256, 256 )
9/navigation_offset = Vector2( 256, 256 )
9/shape_offset = Vector2( 0, 0 )
9/shape_transform = Transform2D( 1, 0, 0, 1, 0, 0 )
9/shape_one_way = false
9/shape_one_way_margin = 0.0
9/shapes = [  ]
9/z_index = 0
10/name = "building_wall_E"
10/texture = ExtResource( 1 )
10/tex_offset = Vector2( 0, 0 )
10/modulate = Color( 1, 1, 1, 1 )
10/region = Rect2( 0, 0, 512, 512 )
10/tile_mode = 0
10/occluder_offset = Vector2( 256, 256 )
10/navigation_offset = Vector2( 256, 256 )
10/shape_offset = Vector2( 0, 0 )
10/shape_transform = Transform2D( 1, 0, 0, 1, 0, 0 )
10/shape_one_way = false
10/shape_one_way_margin = 0.0
10/shapes = [  ]
10/z_index = 0
11/name = "dirt_E"
11/texture = ExtResource( 12 )
11/tex_offset = Vector2( 0, 0 )
11/modulate = Color( 1, 1, 1, 1 )
11/region = Rect2( 0, 0, 512, 512 )
11/tile_mode = 0
11/occluder_offset = Vector2( 256, 256 )
11/navigation_offset = Vector2( 256, 256 )
11/shape_offset = Vector2( 0, 0 )
11/shape_transform = Transform2D( 1, 0, 0, 1, 0, 0 )
11/shape_one_way = false
11/shape_one_way_margin = 0.0
11/shapes = [  ]
11/z_index = 0
12/name = "dirt_lumber_E"
12/texture = ExtResource( 32 )
12/tex_offset = Vector2( 0, 0 )
12/modulate = Color( 1, 1, 1, 1 )
12/region = Rect2( 0, 0, 512, 512 )
12/tile_mode = 0
12/occluder_offset = Vector2( 256, 256 )
12/navigation_offset = Vector2( 256, 256 )
12/shape_offset = Vector2( 0, 0 )
12/shape_transform = Transform2D( 1, 0, 0, 1, 0, 0 )
12/shape_one_way = false
12/shape_one_way_margin = 0.0
12/shapes = [  ]
12/z_index = 0
13/name = "dirt_lumber_N"
13/texture = ExtResource( 29 )
13/tex_offset = Vector2( 0, 0 )
13/modulate = Color( 1, 1, 1, 1 )
13/region = Rect2( 0, 0, 512, 512 )
13/tile_mode = 0
13/occluder_offset = Vector2( 256, 256 )
13/navigation_offset = Vector2( 256, 256 )
13/shape_offset = Vector2( 0, 0 )
13/shape_transform = Transform2D( 1, 0, 0, 1, 0, 0 )
13/shape_one_way = false
13/shape_one_way_margin = 0.0
13/shapes = [  ]
13/z_index = 0
14/name = "dirt_lumber_S"
14/texture = ExtResource( 37 )
14/tex_offset = Vector2( 0, 0 )
14/modulate = Color( 1, 1, 1, 1 )
14/region = Rect2( 0, 0, 512, 512 )
14/tile_mode = 0
14/occluder_offset = Vector2( 256, 256 )
14/navigation_offset = Vector2( 256, 256 )
14/shape_offset = Vector2( 0, 0 )
14/shape_transform = Transform2D( 1, 0, 0, 1, 0, 0 )
14/shape_one_way = false
14/shape_one_way_margin = 0.0
14/shapes = [  ]
14/z_index = 0
15/name = "path_cornerSharp_N"
15/texture = ExtResource( 17 )
15/tex_offset = Vector2( 0, 0 )
15/modulate = Color( 1, 1, 1, 1 )
15/region = Rect2( 0, 0, 512, 512 )
15/tile_mode = 0
15/occluder_offset = Vector2( 256, 256 )
15/navigation_offset = Vector2( 256, 256 )
15/shape_offset = Vector2( 0, 0 )
15/shape_transform = Transform2D( 1, 0, 0, 1, 0, 0 )
15/shape_one_way = false
15/shape_one_way_margin = 0.0
15/shapes = [  ]
15/z_index = 0
16/name = "path_cornerSharp_NE"
16/texture = ExtResource( 35 )
16/tex_offset = Vector2( 0, 0 )
16/modulate = Color( 1, 1, 1, 1 )
16/region = Rect2( 0, 0, 512, 512 )
16/tile_mode = 0
16/occluder_offset = Vector2( 256, 256 )
16/navigation_offset = Vector2( 256, 256 )
16/shape_offset = Vector2( 0, 0 )
16/shape_transform = Transform2D( 1, 0, 0, 1, 0, 0 )
16/shape_one_way = false
16/shape_one_way_margin = 0.0
16/shapes = [  ]
16/z_index = 0
17/name = "path_cornerSharp_NW"
17/texture = ExtResource( 38 )
17/tex_offset = Vector2( 0, 0 )
17/modulate = Color( 1, 1, 1, 1 )
17/region = Rect2( 0, 0, 512, 512 )
17/tile_mode = 0
17/occluder_offset = Vector2( 256, 256 )
17/navigation_offset = Vector2( 256, 256 )
17/shape_offset = Vector2( 0, 0 )
17/shape_transform = Transform2D( 1, 0, 0, 1, 0, 0 )
17/shape_one_way = false
17/shape_one_way_margin = 0.0
17/shapes = [  ]
17/z_index = 0
18/name = "path_cornerSharp_S"
18/texture = ExtResource( 33 )
18/tex_offset = Vector2( 0, 0 )
18/modulate = Color( 1, 1, 1, 1 )
18/region = Rect2( 0, 0, 512, 512 )
18/tile_mode = 0
18/occluder_offset = Vector2( 256, 256 )
18/navigation_offset = Vector2( 256, 256 )
18/shape_offset = Vector2( 0, 0 )
18/shape_transform = Transform2D( 1, 0, 0, 1, 0, 0 )
18/shape_one_way = false
18/shape_one_way_margin = 0.0
18/shapes = [  ]
18/z_index = 0
19/name = "path_cornerSharp_SE"
19/texture = ExtResource( 39 )
19/tex_offset = Vector2( 0, 0 )
19/modulate = Color( 1, 1, 1, 1 )
19/region = Rect2( 0, 0, 512, 512 )
19/tile_mode = 0
19/occluder_offset = Vector2( 256, 256 )
19/navigation_offset = Vector2( 256, 256 )
19/shape_offset = Vector2( 0, 0 )
19/shape_transform = Transform2D( 1, 0, 0, 1, 0, 0 )
19/shape_one_way = false
19/shape_one_way_margin = 0.0
19/shapes = [  ]
19/z_index = 0
20/name = "path_cornerSharp_SW"
20/texture = ExtResource( 25 )
20/tex_offset = Vector2( 0, 0 )
20/modulate = Color( 1, 1, 1, 1 )
20/region = Rect2( 0, 0, 512, 512 )
20/tile_mode = 0
20/occluder_offset = Vector2( 256, 256 )
20/navigation_offset = Vector2( 256, 256 )
20/shape_offset = Vector2( 0, 0 )
20/shape_transform = Transform2D( 1, 0, 0, 1, 0, 0 )
20/shape_one_way = false
20/shape_one_way_margin = 0.0
20/shapes = [  ]
20/z_index = 0
21/name = "path_cornerSharp_W"
21/texture = ExtResource( 22 )
21/tex_offset = Vector2( 0, 0 )
21/modulate = Color( 1, 1, 1, 1 )
21/region = Rect2( 0, 0, 512, 512 )
21/tile_mode = 0
21/occluder_offset = Vector2( 256, 256 )
21/navigation_offset = Vector2( 256, 256 )
21/shape_offset = Vector2( 0, 0 )
21/shape_transform = Transform2D( 1, 0, 0, 1, 0, 0 )
21/shape_one_way = false
21/shape_one_way_margin = 0.0
21/shapes = [  ]
21/z_index = 0
22/name = "path_corner_E"
22/texture = ExtResource( 18 )
22/tex_offset = Vector2( 0, 0 )
22/modulate = Color( 1, 1, 1, 1 )
22/region = Rect2( 0, 0, 512, 512 )
22/tile_mode = 0
22/occluder_offset = Vector2( 256, 256 )
22/navigation_offset = Vector2( 256, 256 )
22/shape_offset = Vector2( 0, 0 )
22/shape_transform = Transform2D( 1, 0, 0, 1, 0, 0 )
22/shape_one_way = false
22/shape_one_way_margin = 0.0
22/shapes = [  ]
22/z_index = 0
23/name = "path_corner_N"
23/texture = ExtResource( 36 )
23/tex_offset = Vector2( 0, 0 )
23/modulate = Color( 1, 1, 1, 1 )
23/region = Rect2( 0, 0, 512, 512 )
23/tile_mode = 0
23/occluder_offset = Vector2( 256, 256 )
23/navigation_offset = Vector2( 256, 256 )
23/shape_offset = Vector2( 0, 0 )
23/shape_transform = Transform2D( 1, 0, 0, 1, 0, 0 )
23/shape_one_way = false
23/shape_one_way_margin = 0.0
23/shapes = [  ]
23/z_index = 0
24/name = "path_corner_NE"
24/texture = ExtResource( 34 )
24/tex_offset = Vector2( 0, 0 )
24/modulate = Color( 1, 1, 1, 1 )
24/region = Rect2( 0, 0, 512, 512 )
24/tile_mode = 0
24/occluder_offset = Vector2( 256, 256 )
24/navigation_offset = Vector2( 256, 256 )
24/shape_offset = Vector2( 0, 0 )
24/shape_transform = Transform2D( 1, 0, 0, 1, 0, 0 )
24/shape_one_way = false
24/shape_one_way_margin = 0.0
24/shapes = [  ]
24/z_index = 0
25/name = "path_corner_NW"
25/texture = ExtResource( 26 )
25/tex_offset = Vector2( 0, 0 )
25/modulate = Color( 1, 1, 1, 1 )
25/region = Rect2( 0, 0, 512, 512 )
25/tile_mode = 0
25/occluder_offset = Vector2( 256, 256 )
25/navigation_offset = Vector2( 256, 256 )
25/shape_offset = Vector2( 0, 0 )
25/shape_transform = Transform2D( 1, 0, 0, 1, 0, 0 )
25/shape_one_way = false
25/shape_one_way_margin = 0.0
25/shapes = [  ]
25/z_index = 0
26/name = "path_corner_S"
26/texture = ExtResource( 19 )
26/tex_offset = Vector2( 0, 0 )
26/modulate = Color( 1, 1, 1, 1 )
26/region = Rect2( 0, 0, 512, 512 )
26/tile_mode = 0
26/occluder_offset = Vector2( 256, 256 )
26/navigation_offset = Vector2( 256, 256 )
26/shape_offset = Vector2( 0, 0 )
26/shape_transform = Transform2D( 1, 0, 0, 1, 0, 0 )
26/shape_one_way = false
26/shape_one_way_margin = 0.0
26/shapes = [  ]
26/z_index = 0
27/name = "path_corner_SE"
27/texture = ExtResource( 43 )
27/tex_offset = Vector2( 0, 0 )
27/modulate = Color( 1, 1, 1, 1 )
27/region = Rect2( 0, 0, 512, 512 )
27/tile_mode = 0
27/occluder_offset = Vector2( 256, 256 )
27/navigation_offset = Vector2( 256, 256 )
27/shape_offset = Vector2( 0, 0 )
27/shape_transform = Transform2D( 1, 0, 0, 1, 0, 0 )
27/shape_one_way = false
27/shape_one_way_margin = 0.0
27/shapes = [  ]
27/z_index = 0
28/name = "path_corner_SW"
28/texture = ExtResource( 13 )
28/tex_offset = Vector2( 0, 0 )
28/modulate = Color( 1, 1, 1, 1 )
28/region = Rect2( 0, 0, 512, 512 )
28/tile_mode = 0
28/occluder_offset = Vector2( 256, 256 )
28/navigation_offset = Vector2( 256, 256 )
28/shape_offset = Vector2( 0, 0 )
28/shape_transform = Transform2D( 1, 0, 0, 1, 0, 0 )
28/shape_one_way = false
28/shape_one_way_margin = 0.0
28/shapes = [  ]
28/z_index = 0
29/name = "path_corner_W"
29/texture = ExtResource( 30 )
29/tex_offset = Vector2( 0, 0 )
29/modulate = Color( 1, 1, 1, 1 )
29/region = Rect2( 0, 0, 512, 512 )
29/tile_mode = 0
29/occluder_offset = Vector2( 256, 256 )
29/navigation_offset = Vector2( 256, 256 )
29/shape_offset = Vector2( 0, 0 )
29/shape_transform = Transform2D( 1, 0, 0, 1, 0, 0 )
29/shape_one_way = false
29/shape_one_way_margin = 0.0
29/shapes = [  ]
29/z_index = 0
30/name = "path_crossing_E"
30/texture = ExtResource( 27 )
30/tex_offset = Vector2( 0, 0 )
30/modulate = Color( 1, 1, 1, 1 )
30/region = Rect2( 0, 0, 512, 512 )
30/tile_mode = 0
30/occluder_offset = Vector2( 256, 256 )
30/navigation_offset = Vector2( 256, 256 )
30/shape_offset = Vector2( 0, 0 )
30/shape_transform = Transform2D( 1, 0, 0, 1, 0, 0 )
30/shape_one_way = false
30/shape_one_way_margin = 0.0
30/shapes = [  ]
30/z_index = 0
31/name = "path_crossing_N"
31/texture = ExtResource( 20 )
31/tex_offset = Vector2( 0, 0 )
31/modulate = Color( 1, 1, 1, 1 )
31/region = Rect2( 0, 0, 512, 512 )
31/tile_mode = 0
31/occluder_offset = Vector2( 256, 256 )
31/navigation_offset = Vector2( 256, 256 )
31/shape_offset = Vector2( 0, 0 )
31/shape_transform = Transform2D( 1, 0, 0, 1, 0, 0 )
31/shape_one_way = false
31/shape_one_way_margin = 0.0
31/shapes = [  ]
31/z_index = 0
32/name = "path_end_NW"
32/texture = ExtResource( 40 )
32/tex_offset = Vector2( 0, 0 )
32/modulate = Color( 1, 1, 1, 1 )
32/region = Rect2( 0, 0, 512, 512 )
32/tile_mode = 0
32/occluder_offset = Vector2( 256, 256 )
32/navigation_offset = Vector2( 256, 256 )
32/shape_offset = Vector2( 0, 0 )
32/shape_transform = Transform2D( 1, 0, 0, 1, 0, 0 )
32/shape_one_way = false
32/shape_one_way_margin = 0.0
32/shapes = [  ]
32/z_index = 0
33/name = "path_end_S"
33/texture = ExtResource( 23 )
33/tex_offset = Vector2( 0, 0 )
33/modulate = Color( 1, 1, 1, 1 )
33/region = Rect2( 0, 0, 512, 512 )
33/tile_mode = 0
33/occluder_offset = Vector2( 256, 256 )
33/navigation_offset = Vector2( 256, 256 )
33/shape_offset = Vector2( 0, 0 )
33/shape_transform = Transform2D( 1, 0, 0, 1, 0, 0 )
33/shape_one_way = false
33/shape_one_way_margin = 0.0
33/shapes = [  ]
33/z_index = 0
34/name = "path_end_SE"
34/texture = ExtResource( 44 )
34/tex_offset = Vector2( 0, 0 )
34/modulate = Color( 1, 1, 1, 1 )
34/region = Rect2( 0, 0, 512, 512 )
34/tile_mode = 0
34/occluder_offset = Vector2( 256, 256 )
34/navigation_offset = Vector2( 256, 256 )
34/shape_offset = Vector2( 0, 0 )
34/shape_transform = Transform2D( 1, 0, 0, 1, 0, 0 )
34/shape_one_way = false
34/shape_one_way_margin = 0.0
34/shapes = [  ]
34/z_index = 0
35/name = "path_end_SW"
35/texture = ExtResource( 28 )
35/tex_offset = Vector2( 0, 0 )
35/modulate = Color( 1, 1, 1, 1 )
35/region = Rect2( 0, 0, 512, 512 )
35/tile_mode = 0
35/occluder_offset = Vector2( 256, 256 )
35/navigation_offset = Vector2( 256, 256 )
35/shape_offset = Vector2( 0, 0 )
35/shape_transform = Transform2D( 1, 0, 0, 1, 0, 0 )
35/shape_one_way = false
35/shape_one_way_margin = 0.0
35/shapes = [  ]
35/z_index = 0
36/name = "path_end_W"
36/texture = ExtResource( 24 )
36/tex_offset = Vector2( 0, 0 )
36/modulate = Color( 1, 1, 1, 1 )
36/region = Rect2( 0, 0, 512, 512 )
36/tile_mode = 0
36/occluder_offset = Vector2( 256, 256 )
36/navigation_offset = Vector2( 256, 256 )
36/shape_offset = Vector2( 0, 0 )
36/shape_transform = Transform2D( 1, 0, 0, 1, 0, 0 )
36/shape_one_way = false
36/shape_one_way_margin = 0.0
36/shapes = [  ]
36/z_index = 0
37/name = "path_intersectionA_E"
37/texture = ExtResource( 16 )
37/tex_offset = Vector2( 0, 0 )
37/modulate = Color( 1, 1, 1, 1 )
37/region = Rect2( 0, 0, 512, 512 )
37/tile_mode = 0
37/occluder_offset = Vector2( 256, 256 )
37/navigation_offset = Vector2( 256, 256 )
37/shape_offset = Vector2( 0, 0 )
37/shape_transform = Transform2D( 1, 0, 0, 1, 0, 0 )
37/shape_one_way = false
37/shape_one_way_margin = 0.0
37/shapes = [  ]
37/z_index = 0
38/name = "path_straight_SE"
38/texture = ExtResource( 41 )
38/tex_offset = Vector2( 0, 0 )
38/modulate = Color( 1, 1, 1, 1 )
38/region = Rect2( 0, 0, 512, 512 )
38/tile_mode = 0
38/occluder_offset = Vector2( 256, 256 )
38/navigation_offset = Vector2( 256, 256 )
38/shape_offset = Vector2( 0, 0 )
38/shape_transform = Transform2D( 1, 0, 0, 1, 0, 0 )
38/shape_one_way = false
38/shape_one_way_margin = 0.0
38/shapes = [  ]
38/z_index = 0
39/name = "path_straight_S"
39/texture = ExtResource( 31 )
39/tex_offset = Vector2( 0, 0 )
39/modulate = Color( 1, 1, 1, 1 )
39/region = Rect2( 0, 0, 512, 512 )
39/tile_mode = 0
39/occluder_offset = Vector2( 256, 256 )
39/navigation_offset = Vector2( 256, 256 )
39/shape_offset = Vector2( 0, 0 )
39/shape_transform = Transform2D( 1, 0, 0, 1, 0, 0 )
39/shape_one_way = false
39/shape_one_way_margin = 0.0
39/shapes = [  ]
39/z_index = 0
40/name = "path_straight_NW"
40/texture = ExtResource( 42 )
40/tex_offset = Vector2( 0, 0 )
40/modulate = Color( 1, 1, 1, 1 )
40/region = Rect2( 0, 0, 512, 512 )
40/tile_mode = 0
40/occluder_offset = Vector2( 256, 256 )
40/navigation_offset = Vector2( 256, 256 )
40/shape_offset = Vector2( 0, 0 )
40/shape_transform = Transform2D( 1, 0, 0, 1, 0, 0 )
40/shape_one_way = false
40/shape_one_way_margin = 0.0
40/shapes = [  ]
40/z_index = 0
41/name = "path_straight_NE"
41/texture = ExtResource( 14 )
41/tex_offset = Vector2( 0, 0 )
41/modulate = Color( 1, 1, 1, 1 )
41/region = Rect2( 0, 0, 512, 512 )
41/tile_mode = 0
41/occluder_offset = Vector2( 256, 256 )
41/navigation_offset = Vector2( 256, 256 )
41/shape_offset = Vector2( 0, 0 )
41/shape_transform = Transform2D( 1, 0, 0, 1, 0, 0 )
41/shape_one_way = false
41/shape_one_way_margin = 0.0
41/shapes = [  ]
41/z_index = 0
42/name = "path_straight_N"
42/texture = ExtResource( 21 )
42/tex_offset = Vector2( 0, 0 )
42/modulate = Color( 1, 1, 1, 1 )
42/region = Rect2( 0, 0, 512, 512 )
42/tile_mode = 0
42/occluder_offset = Vector2( 256, 256 )
42/navigation_offset = Vector2( 256, 256 )
42/shape_offset = Vector2( 0, 0 )
42/shape_transform = Transform2D( 1, 0, 0, 1, 0, 0 )
42/shape_one_way = false
42/shape_one_way_margin = 0.0
42/shapes = [  ]
42/z_index = 0
43/name = "path_straight_E"
43/texture = ExtResource( 15 )
43/tex_offset = Vector2( 0, 0 )
43/modulate = Color( 1, 1, 1, 1 )
43/region = Rect2( 0, 0, 512, 512 )
43/tile_mode = 0
43/occluder_offset = Vector2( 256, 256 )
43/navigation_offset = Vector2( 256, 256 )
43/shape_offset = Vector2( 0, 0 )
43/shape_transform = Transform2D( 1, 0, 0, 1, 0, 0 )
43/shape_one_way = false
43/shape_one_way_margin = 0.0
43/shapes = [  ]
43/z_index = 0
44/name = "path_start_W"
44/texture = ExtResource( 46 )
44/tex_offset = Vector2( 0, 0 )
44/modulate = Color( 1, 1, 1, 1 )
44/region = Rect2( 0, 0, 512, 512 )
44/tile_mode = 0
44/occluder_offset = Vector2( 256, 256 )
44/navigation_offset = Vector2( 256, 256 )
44/shape_offset = Vector2( 0, 0 )
44/shape_transform = Transform2D( 1, 0, 0, 1, 0, 0 )
44/shape_one_way = false
44/shape_one_way_margin = 0.0
44/shapes = [  ]
44/z_index = 0
45/name = "path_start_SW"
45/texture = ExtResource( 47 )
45/tex_offset = Vector2( 0, 0 )
45/modulate = Color( 1, 1, 1, 1 )
45/region = Rect2( 0, 0, 512, 512 )
45/tile_mode = 0
45/occluder_offset = Vector2( 256, 256 )
45/navigation_offset = Vector2( 256, 256 )
45/shape_offset = Vector2( 0, 0 )
45/shape_transform = Transform2D( 1, 0, 0, 1, 0, 0 )
45/shape_one_way = false
45/shape_one_way_margin = 0.0
45/shapes = [  ]
45/z_index = 0
46/name = "sand_E"
46/texture = ExtResource( 56 )
46/tex_offset = Vector2( 0, 0 )
46/modulate = Color( 1, 1, 1, 1 )
46/region = Rect2( 0, 0, 512, 512 )
46/tile_mode = 0
46/occluder_offset = Vector2( 256, 256 )
46/navigation_offset = Vector2( 256, 256 )
46/shape_offset = Vector2( 0, 0 )
46/shape_transform = Transform2D( 1, 0, 0, 1, 0, 0 )
46/shape_one_way = false
46/shape_one_way_margin = 0.0
46/shapes = [  ]
46/z_index = 0
47/name = "sand_N"
47/texture = ExtResource( 61 )
47/tex_offset = Vector2( 0, 0 )
47/modulate = Color( 1, 1, 1, 1 )
47/region = Rect2( 0, 0, 512, 512 )
47/tile_mode = 0
47/occluder_offset = Vector2( 256, 256 )
47/navigation_offset = Vector2( 256, 256 )
47/shape_offset = Vector2( 0, 0 )
47/shape_transform = Transform2D( 1, 0, 0, 1, 0, 0 )
47/shape_one_way = false
47/shape_one_way_margin = 0.0
47/shapes = [  ]
47/z_index = 0
48/name = "sand_NE"
48/texture = ExtResource( 67 )
48/tex_offset = Vector2( 0, 0 )
48/modulate = Color( 1, 1, 1, 1 )
48/region = Rect2( 0, 0, 512, 512 )
48/tile_mode = 0
48/occluder_offset = Vector2( 256, 256 )
48/navigation_offset = Vector2( 256, 256 )
48/shape_offset = Vector2( 0, 0 )
48/shape_transform = Transform2D( 1, 0, 0, 1, 0, 0 )
48/shape_one_way = false
48/shape_one_way_margin = 0.0
48/shapes = [  ]
48/z_index = 0
49/name = "sand_NW"
49/texture = ExtResource( 45 )
49/tex_offset = Vector2( 0, 0 )
49/modulate = Color( 1, 1, 1, 1 )
49/region = Rect2( 0, 0, 512, 512 )
49/tile_mode = 0
49/occluder_offset = Vector2( 256, 256 )
49/navigation_offset = Vector2( 256, 256 )
49/shape_offset = Vector2( 0, 0 )
49/shape_transform = Transform2D( 1, 0, 0, 1, 0, 0 )
49/shape_one_way = false
49/shape_one_way_margin = 0.0
49/shapes = [  ]
49/z_index = 0
50/name = "sand_rocks_E"
50/texture = ExtResource( 59 )
50/tex_offset = Vector2( 0, 0 )
50/modulate = Color( 1, 1, 1, 1 )
50/region = Rect2( 0, 0, 512, 512 )
50/tile_mode = 0
50/occluder_offset = Vector2( 256, 256 )
50/navigation_offset = Vector2( 256, 256 )
50/shape_offset = Vector2( 0, 0 )
50/shape_transform = Transform2D( 1, 0, 0, 1, 0, 0 )
50/shape_one_way = false
50/shape_one_way_margin = 0.0
50/shapes = [  ]
50/z_index = 0
51/name = "sand_rocks_N"
51/texture = ExtResource( 54 )
51/tex_offset = Vector2( 0, 0 )
51/modulate = Color( 1, 1, 1, 1 )
51/region = Rect2( 0, 0, 512, 512 )
51/tile_mode = 0
51/occluder_offset = Vector2( 256, 256 )
51/navigation_offset = Vector2( 256, 256 )
51/shape_offset = Vector2( 0, 0 )
51/shape_transform = Transform2D( 1, 0, 0, 1, 0, 0 )
51/shape_one_way = false
51/shape_one_way_margin = 0.0
51/shapes = [  ]
51/z_index = 0
52/name = "sand_rocks_NE"
52/texture = ExtResource( 74 )
52/tex_offset = Vector2( 0, 0 )
52/modulate = Color( 1, 1, 1, 1 )
52/region = Rect2( 0, 0, 512, 512 )
52/tile_mode = 0
52/occluder_offset = Vector2( 256, 256 )
52/navigation_offset = Vector2( 256, 256 )
52/shape_offset = Vector2( 0, 0 )
52/shape_transform = Transform2D( 1, 0, 0, 1, 0, 0 )
52/shape_one_way = false
52/shape_one_way_margin = 0.0
52/shapes = [  ]
52/z_index = 0
53/name = "sand_rocks_NW"
53/texture = ExtResource( 63 )
53/tex_offset = Vector2( 0, 0 )
53/modulate = Color( 1, 1, 1, 1 )
53/region = Rect2( 0, 0, 512, 512 )
53/tile_mode = 0
53/occluder_offset = Vector2( 256, 256 )
53/navigation_offset = Vector2( 256, 256 )
53/shape_offset = Vector2( 0, 0 )
53/shape_transform = Transform2D( 1, 0, 0, 1, 0, 0 )
53/shape_one_way = false
53/shape_one_way_margin = 0.0
53/shapes = [  ]
53/z_index = 0
54/name = "sand_rocks_S"
54/texture = ExtResource( 60 )
54/tex_offset = Vector2( 0, 0 )
54/modulate = Color( 1, 1, 1, 1 )
54/region = Rect2( 0, 0, 512, 512 )
54/tile_mode = 0
54/occluder_offset = Vector2( 256, 256 )
54/navigation_offset = Vector2( 256, 256 )
54/shape_offset = Vector2( 0, 0 )
54/shape_transform = Transform2D( 1, 0, 0, 1, 0, 0 )
54/shape_one_way = false
54/shape_one_way_margin = 0.0
54/shapes = [  ]
54/z_index = 0
55/name = "sand_rocks_SE"
55/texture = ExtResource( 53 )
55/tex_offset = Vector2( 0, 0 )
55/modulate = Color( 1, 1, 1, 1 )
55/region = Rect2( 0, 0, 512, 512 )
55/tile_mode = 0
55/occluder_offset = Vector2( 256, 256 )
55/navigation_offset = Vector2( 256, 256 )
55/shape_offset = Vector2( 0, 0 )
55/shape_transform = Transform2D( 1, 0, 0, 1, 0, 0 )
55/shape_one_way = false
55/shape_one_way_margin = 0.0
55/shapes = [  ]
55/z_index = 0
56/name = "sand_rocks_SW"
56/texture = ExtResource( 62 )
56/tex_offset = Vector2( 0, 0 )
56/modulate = Color( 1, 1, 1, 1 )
56/region = Rect2( 0, 0, 512, 512 )
56/tile_mode = 0
56/occluder_offset = Vector2( 256, 256 )
56/navigation_offset = Vector2( 256, 256 )
56/shape_offset = Vector2( 0, 0 )
56/shape_transform = Transform2D( 1, 0, 0, 1, 0, 0 )
56/shape_one_way = false
56/shape_one_way_margin = 0.0
56/shapes = [  ]
56/z_index = 0
57/name = "sand_rocks_W"
57/texture = ExtResource( 75 )
57/tex_offset = Vector2( 0, 0 )
57/modulate = Color( 1, 1, 1, 1 )
57/region = Rect2( 0, 0, 512, 512 )
57/tile_mode = 0
57/occluder_offset = Vector2( 256, 256 )
57/navigation_offset = Vector2( 256, 256 )
57/shape_offset = Vector2( 0, 0 )
57/shape_transform = Transform2D( 1, 0, 0, 1, 0, 0 )
57/shape_one_way = false
57/shape_one_way_margin = 0.0
57/shapes = [  ]
57/z_index = 0
58/name = "sand_S"
58/texture = ExtResource( 57 )
58/tex_offset = Vector2( 0, 0 )
58/modulate = Color( 1, 1, 1, 1 )
58/region = Rect2( 0, 0, 512, 512 )
58/tile_mode = 0
58/occluder_offset = Vector2( 256, 256 )
58/navigation_offset = Vector2( 256, 256 )
58/shape_offset = Vector2( 0, 0 )
58/shape_transform = Transform2D( 1, 0, 0, 1, 0, 0 )
58/shape_one_way = false
58/shape_one_way_margin = 0.0
58/shapes = [  ]
58/z_index = 0
59/name = "sand_SE"
59/texture = ExtResource( 48 )
59/tex_offset = Vector2( 0, 0 )
59/modulate = Color( 1, 1, 1, 1 )
59/region = Rect2( 0, 0, 512, 512 )
59/tile_mode = 0
59/occluder_offset = Vector2( 256, 256 )
59/navigation_offset = Vector2( 256, 256 )
59/shape_offset = Vector2( 0, 0 )
59/shape_transform = Transform2D( 1, 0, 0, 1, 0, 0 )
59/shape_one_way = false
59/shape_one_way_margin = 0.0
59/shapes = [  ]
59/z_index = 0
60/name = "sand_SW"
60/texture = ExtResource( 58 )
60/tex_offset = Vector2( 0, 0 )
60/modulate = Color( 1, 1, 1, 1 )
60/region = Rect2( 0, 0, 512, 512 )
60/tile_mode = 0
60/occluder_offset = Vector2( 256, 256 )
60/navigation_offset = Vector2( 256, 256 )
60/shape_offset = Vector2( 0, 0 )
60/shape_transform = Transform2D( 1, 0, 0, 1, 0, 0 )
60/shape_one_way = false
60/shape_one_way_margin = 0.0
60/shapes = [  ]
60/z_index = 0
61/name = "sand_W"
61/texture = ExtResource( 66 )
61/tex_offset = Vector2( 0, 0 )
61/modulate = Color( 1, 1, 1, 1 )
61/region = Rect2( 0, 0, 512, 512 )
61/tile_mode = 0
61/occluder_offset = Vector2( 256, 256 )
61/navigation_offset = Vector2( 256, 256 )
61/shape_offset = Vector2( 0, 0 )
61/shape_transform = Transform2D( 1, 0, 0, 1, 0, 0 )
61/shape_one_way = false
61/shape_one_way_margin = 0.0
61/shapes = [  ]
61/z_index = 0
62/name = "stone_E"
62/texture = ExtResource( 68 )
62/tex_offset = Vector2( 0, 0 )
62/modulate = Color( 1, 1, 1, 1 )
62/region = Rect2( 0, 0, 512, 512 )
62/tile_mode = 0
62/occluder_offset = Vector2( 256, 256 )
62/navigation_offset = Vector2( 256, 256 )
62/shape_offset = Vector2( 0, 0 )
62/shape_transform = Transform2D( 1, 0, 0, 1, 0, 0 )
62/shape_one_way = false
62/shape_one_way_margin = 0.0
62/shapes = [  ]
62/z_index = 0
63/name = "sand_W2"
63/texture = ExtResource( 66 )
63/tex_offset = Vector2( 0, 0 )
63/modulate = Color( 1, 1, 1, 1 )
63/region = Rect2( 0, 0, 512, 512 )
63/tile_mode = 0
63/occluder_offset = Vector2( 256, 256 )
63/navigation_offset = Vector2( 256, 256 )
63/shape_offset = Vector2( 0, 0 )
63/shape_transform = Transform2D( 1, 0, 0, 1, 0, 0 )
63/shape_one_way = false
63/shape_one_way_margin = 0.0
63/shapes = [  ]
63/z_index = 0
64/name = "stone_hill_E"
64/texture = ExtResource( 64 )
64/tex_offset = Vector2( 0, 0 )
64/modulate = Color( 1, 1, 1, 1 )
64/region = Rect2( 0, 0, 512, 512 )
64/tile_mode = 0
64/occluder_offset = Vector2( 256, 256 )
64/navigation_offset = Vector2( 256, 256 )
64/shape_offset = Vector2( 0, 0 )
64/shape_transform = Transform2D( 1, 0, 0, 1, 0, 0 )
64/shape_one_way = false
64/shape_one_way_margin = 0.0
64/shapes = [  ]
64/z_index = 0
65/name = "stone_hill_N"
65/texture = ExtResource( 73 )
65/tex_offset = Vector2( 0, 0 )
65/modulate = Color( 1, 1, 1, 1 )
65/region = Rect2( 0, 0, 512, 512 )
65/tile_mode = 0
65/occluder_offset = Vector2( 256, 256 )
65/navigation_offset = Vector2( 256, 256 )
65/shape_offset = Vector2( 0, 0 )
65/shape_transform = Transform2D( 1, 0, 0, 1, 0, 0 )
65/shape_one_way = false
65/shape_one_way_margin = 0.0
65/shapes = [  ]
65/z_index = 0
66/name = "stone_rocks_E"
66/texture = ExtResource( 69 )
66/tex_offset = Vector2( 0, 0 )
66/modulate = Color( 1, 1, 1, 1 )
66/region = Rect2( 0, 0, 512, 512 )
66/tile_mode = 0
66/occluder_offset = Vector2( 256, 256 )
66/navigation_offset = Vector2( 256, 256 )
66/shape_offset = Vector2( 0, 0 )
66/shape_transform = Transform2D( 1, 0, 0, 1, 0, 0 )
66/shape_one_way = false
66/shape_one_way_margin = 0.0
66/shapes = [  ]
66/z_index = 0
67/name = "stone_rocks_N"
67/texture = ExtResource( 71 )
67/tex_offset = Vector2( 0, 0 )
67/modulate = Color( 1, 1, 1, 1 )
67/region = Rect2( 0, 0, 512, 512 )
67/tile_mode = 0
67/occluder_offset = Vector2( 256, 256 )
67/navigation_offset = Vector2( 256, 256 )
67/shape_offset = Vector2( 0, 0 )
67/shape_transform = Transform2D( 1, 0, 0, 1, 0, 0 )
67/shape_one_way = false
67/shape_one_way_margin = 0.0
67/shapes = [  ]
67/z_index = 0
68/name = "stone_rocks_NE"
68/texture = ExtResource( 49 )
68/tex_offset = Vector2( 0, 0 )
68/modulate = Color( 1, 1, 1, 1 )
68/region = Rect2( 0, 0, 512, 512 )
68/tile_mode = 0
68/occluder_offset = Vector2( 256, 256 )
68/navigation_offset = Vector2( 256, 256 )
68/shape_offset = Vector2( 0, 0 )
68/shape_transform = Transform2D( 1, 0, 0, 1, 0, 0 )
68/shape_one_way = false
68/shape_one_way_margin = 0.0
68/shapes = [  ]
68/z_index = 0
69/name = "stone_rocks_NW"
69/texture = ExtResource( 70 )
69/tex_offset = Vector2( 0, 0 )
69/modulate = Color( 1, 1, 1, 1 )
69/region = Rect2( 0, 0, 512, 512 )
69/tile_mode = 0
69/occluder_offset = Vector2( 256, 256 )
69/navigation_offset = Vector2( 256, 256 )
69/shape_offset = Vector2( 0, 0 )
69/shape_transform = Transform2D( 1, 0, 0, 1, 0, 0 )
69/shape_one_way = false
69/shape_one_way_margin = 0.0
69/shapes = [  ]
69/z_index = 0
70/name = "stone_rocks_S"
70/texture = ExtResource( 52 )
70/tex_offset = Vector2( 0, 0 )
70/modulate = Color( 1, 1, 1, 1 )
70/region = Rect2( 0, 0, 512, 512 )
70/tile_mode = 0
70/occluder_offset = Vector2( 256, 256 )
70/navigation_offset = Vector2( 256, 256 )
70/shape_offset = Vector2( 0, 0 )
70/shape_transform = Transform2D( 1, 0, 0, 1, 0, 0 )
70/shape_one_way = false
70/shape_one_way_margin = 0.0
70/shapes = [  ]
70/z_index = 0
71/name = "stone_rocks_SE"
71/texture = ExtResource( 65 )
71/tex_offset = Vector2( 0, 0 )
71/modulate = Color( 1, 1, 1, 1 )
71/region = Rect2( 0, 0, 512, 512 )
71/tile_mode = 0
71/occluder_offset = Vector2( 256, 256 )
71/navigation_offset = Vector2( 256, 256 )
71/shape_offset = Vector2( 0, 0 )
71/shape_transform = Transform2D( 1, 0, 0, 1, 0, 0 )
71/shape_one_way = false
71/shape_one_way_margin = 0.0
71/shapes = [  ]
71/z_index = 0
72/name = "stone_rocks_SW"
72/texture = ExtResource( 50 )
72/tex_offset = Vector2( 0, 0 )
72/modulate = Color( 1, 1, 1, 1 )
72/region = Rect2( 0, 0, 512, 512 )
72/tile_mode = 0
72/occluder_offset = Vector2( 256, 256 )
72/navigation_offset = Vector2( 256, 256 )
72/shape_offset = Vector2( 0, 0 )
72/shape_transform = Transform2D( 1, 0, 0, 1, 0, 0 )
72/shape_one_way = false
72/shape_one_way_margin = 0.0
72/shapes = [  ]
72/z_index = 0
73/name = "stone_rocks_W"
73/texture = ExtResource( 76 )
73/tex_offset = Vector2( 0, 0 )
73/modulate = Color( 1, 1, 1, 1 )
73/region = Rect2( 0, 0, 512, 512 )
73/tile_mode = 0
73/occluder_offset = Vector2( 256, 256 )
73/navigation_offset = Vector2( 256, 256 )
73/shape_offset = Vector2( 0, 0 )
73/shape_transform = Transform2D( 1, 0, 0, 1, 0, 0 )
73/shape_one_way = false
73/shape_one_way_margin = 0.0
73/shapes = [  ]
73/z_index = 0
74/name = "stone_S"
74/texture = ExtResource( 55 )
74/tex_offset = Vector2( 0, 0 )
74/modulate = Color( 1, 1, 1, 1 )
74/region = Rect2( 0, 0, 512, 512 )
74/tile_mode = 0
74/occluder_offset = Vector2( 256, 256 )
74/navigation_offset = Vector2( 256, 256 )
74/shape_offset = Vector2( 0, 0 )
74/shape_transform = Transform2D( 1, 0, 0, 1, 0, 0 )
74/shape_one_way = false
74/shape_one_way_margin = 0.0
74/shapes = [  ]
74/z_index = 0
75/name = "stone_SE"
75/texture = ExtResource( 51 )
75/tex_offset = Vector2( 0, 0 )
75/modulate = Color( 1, 1, 1, 1 )
75/region = Rect2( 0, 0, 512, 512 )
75/tile_mode = 0
75/occluder_offset = Vector2( 256, 256 )
75/navigation_offset = Vector2( 256, 256 )
75/shape_offset = Vector2( 0, 0 )
75/shape_transform = Transform2D( 1, 0, 0, 1, 0, 0 )
75/shape_one_way = false
75/shape_one_way_margin = 0.0
75/shapes = [  ]
75/z_index = 0
76/name = "stone_SW"
76/texture = ExtResource( 72 )
76/tex_offset = Vector2( 0, 0 )
76/modulate = Color( 1, 1, 1, 1 )
76/region = Rect2( 0, 0, 512, 512 )
76/tile_mode = 0
76/occluder_offset = Vector2( 256, 256 )
76/navigation_offset = Vector2( 256, 256 )
76/shape_offset = Vector2( 0, 0 )
76/shape_transform = Transform2D( 1, 0, 0, 1, 0, 0 )
76/shape_one_way = false
76/shape_one_way_margin = 0.0
76/shapes = [  ]
76/z_index = 0
77/name = "stone_W"
77/texture = ExtResource( 77 )
77/tex_offset = Vector2( 0, 0 )
77/modulate = Color( 1, 1, 1, 1 )
77/region = Rect2( 0, 0, 512, 512 )
77/tile_mode = 0
77/occluder_offset = Vector2( 256, 256 )
77/navigation_offset = Vector2( 256, 256 )
77/shape_offset = Vector2( 0, 0 )
77/shape_transform = Transform2D( 1, 0, 0, 1, 0, 0 )
77/shape_one_way = false
77/shape_one_way_margin = 0.0
77/shapes = [  ]
77/z_index = 0
78/name = "unit_boat_E"
78/texture = ExtResource( 82 )
78/tex_offset = Vector2( 0, 0 )
78/modulate = Color( 1, 1, 1, 1 )
78/region = Rect2( 0, 0, 512, 512 )
78/tile_mode = 0
78/occluder_offset = Vector2( 256, 256 )
78/navigation_offset = Vector2( 256, 256 )
78/shape_offset = Vector2( 0, 0 )
78/shape_transform = Transform2D( 1, 0, 0, 1, 0, 0 )
78/shape_one_way = false
78/shape_one_way_margin = 0.0
78/shapes = [  ]
78/z_index = 0
79/name = "unit_boat_N"
79/texture = ExtResource( 87 )
79/tex_offset = Vector2( 0, 0 )
79/modulate = Color( 1, 1, 1, 1 )
79/region = Rect2( 0, 0, 512, 512 )
79/tile_mode = 0
79/occluder_offset = Vector2( 256, 256 )
79/navigation_offset = Vector2( 256, 256 )
79/shape_offset = Vector2( 0, 0 )
79/shape_transform = Transform2D( 1, 0, 0, 1, 0, 0 )
79/shape_one_way = false
79/shape_one_way_margin = 0.0
79/shapes = [  ]
79/z_index = 0
80/name = "unit_boat_NE"
80/texture = ExtResource( 89 )
80/tex_offset = Vector2( 0, 0 )
80/modulate = Color( 1, 1, 1, 1 )
80/region = Rect2( 0, 0, 512, 512 )
80/tile_mode = 0
80/occluder_offset = Vector2( 256, 256 )
80/navigation_offset = Vector2( 256, 256 )
80/shape_offset = Vector2( 0, 0 )
80/shape_transform = Transform2D( 1, 0, 0, 1, 0, 0 )
80/shape_one_way = false
80/shape_one_way_margin = 0.0
80/shapes = [  ]
80/z_index = 0
81/name = "unit_boat_NW"
81/texture = ExtResource( 85 )
81/tex_offset = Vector2( 0, 0 )
81/modulate = Color( 1, 1, 1, 1 )
81/region = Rect2( 0, 0, 512, 512 )
81/tile_mode = 0
81/occluder_offset = Vector2( 256, 256 )
81/navigation_offset = Vector2( 256, 256 )
81/shape_offset = Vector2( 0, 0 )
81/shape_transform = Transform2D( 1, 0, 0, 1, 0, 0 )
81/shape_one_way = false
81/shape_one_way_margin = 0.0
81/shapes = [  ]
81/z_index = 0
82/name = "unit_boat_S"
82/texture = ExtResource( 79 )
82/tex_offset = Vector2( 0, 0 )
82/modulate = Color( 1, 1, 1, 1 )
82/region = Rect2( 0, 0, 512, 512 )
82/tile_mode = 0
82/occluder_offset = Vector2( 256, 256 )
82/navigation_offset = Vector2( 256, 256 )
82/shape_offset = Vector2( 0, 0 )
82/shape_transform = Transform2D( 1, 0, 0, 1, 0, 0 )
82/shape_one_way = false
82/shape_one_way_margin = 0.0
82/shapes = [  ]
82/z_index = 0
83/name = "unit_boat_SE"
83/texture = ExtResource( 83 )
83/tex_offset = Vector2( 0, 0 )
83/modulate = Color( 1, 1, 1, 1 )
83/region = Rect2( 0, 0, 512, 512 )
83/tile_mode = 0
83/occluder_offset = Vector2( 256, 256 )
83/navigation_offset = Vector2( 256, 256 )
83/shape_offset = Vector2( 0, 0 )
83/shape_transform = Transform2D( 1, 0, 0, 1, 0, 0 )
83/shape_one_way = false
83/shape_one_way_margin = 0.0
83/shapes = [  ]
83/z_index = 0
84/name = "unit_boat_SW"
84/texture = ExtResource( 88 )
84/tex_offset = Vector2( 0, 0 )
84/modulate = Color( 1, 1, 1, 1 )
84/region = Rect2( 0, 0, 512, 512 )
84/tile_mode = 0
84/occluder_offset = Vector2( 256, 256 )
84/navigation_offset = Vector2( 256, 256 )
84/shape_offset = Vector2( 0, 0 )
84/shape_transform = Transform2D( 1, 0, 0, 1, 0, 0 )
84/shape_one_way = false
84/shape_one_way_margin = 0.0
84/shapes = [  ]
84/z_index = 0
85/name = "unit_mill_N"
85/texture = ExtResource( 81 )
85/tex_offset = Vector2( 0, 0 )
85/modulate = Color( 1, 1, 1, 1 )
85/region = Rect2( 0, 0, 512, 512 )
85/tile_mode = 0
85/occluder_offset = Vector2( 256, 256 )
85/navigation_offset = Vector2( 256, 256 )
85/shape_offset = Vector2( 0, 0 )
85/shape_transform = Transform2D( 1, 0, 0, 1, 0, 0 )
85/shape_one_way = false
85/shape_one_way_margin = 0.0
85/shapes = [  ]
85/z_index = 0
86/name = "water_island_E"
86/texture = ExtResource( 84 )
86/tex_offset = Vector2( 0, 0 )
86/modulate = Color( 1, 1, 1, 1 )
86/region = Rect2( 0, 0, 512, 512 )
86/tile_mode = 0
86/occluder_offset = Vector2( 256, 256 )
86/navigation_offset = Vector2( 256, 256 )
86/shape_offset = Vector2( 0, 0 )
86/shape_transform = Transform2D( 1, 0, 0, 1, 0, 0 )
86/shape_one_way = false
86/shape_one_way_margin = 0.0
86/shapes = [  ]
86/z_index = 0
87/name = "water_W"
87/texture = ExtResource( 90 )
87/tex_offset = Vector2( 0, 0 )
87/modulate = Color( 1, 1, 1, 1 )
87/region = Rect2( 0, 0, 512, 512 )
87/tile_mode = 0
87/occluder_offset = Vector2( 256, 256 )
87/navigation_offset = Vector2( 256, 256 )
87/shape_offset = Vector2( 0, 0 )
87/shape_transform = Transform2D( 1, 0, 0, 1, 0, 0 )
87/shape_one_way = false
87/shape_one_way_margin = 0.0
87/shapes = [  ]
87/z_index = 0
88/name = "water_SW"
88/texture = ExtResource( 80 )
88/tex_offset = Vector2( 0, 0 )
88/modulate = Color( 1, 1, 1, 1 )
88/region = Rect2( 0, 0, 512, 512 )
88/tile_mode = 0
88/occluder_offset = Vector2( 256, 256 )
88/navigation_offset = Vector2( 256, 256 )
88/shape_offset = Vector2( 0, 0 )
88/shape_transform = Transform2D( 1, 0, 0, 1, 0, 0 )
88/shape_one_way = false
88/shape_one_way_margin = 0.0
88/shapes = [  ]
88/z_index = 0
89/name = "water_SE"
89/texture = ExtResource( 86 )
89/tex_offset = Vector2( 0, 0 )
89/modulate = Color( 1, 1, 1, 1 )
89/region = Rect2( 0, 0, 512, 512 )
89/tile_mode = 0
89/occluder_offset = Vector2( 256, 256 )
89/navigation_offset = Vector2( 256, 256 )
89/shape_offset = Vector2( 0, 0 )
89/shape_transform = Transform2D( 1, 0, 0, 1, 0, 0 )
89/shape_one_way = false
89/shape_one_way_margin = 0.0
89/shapes = [  ]
89/z_index = 0
90/name = "water_S"
90/texture = ExtResource( 78 )
90/tex_offset = Vector2( 0, 0 )
90/modulate = Color( 1, 1, 1, 1 )
90/region = Rect2( 0, 0, 512, 512 )
90/tile_mode = 0
90/occluder_offset = Vector2( 256, 256 )
90/navigation_offset = Vector2( 256, 256 )
90/shape_offset = Vector2( 0, 0 )
90/shape_transform = Transform2D( 1, 0, 0, 1, 0, 0 )
90/shape_one_way = false
90/shape_one_way_margin = 0.0
90/shapes = [  ]
90/z_index = 0
